Chapter 3 Base de datos | 2668_Estadistica
…
irisxlsx$sepal.width

##   [1] 3.5 3.0 3.2 3.1 3.6 3.9 3.4 3.4 2.9 3.1 3.7 3.4 3.0 3.0 4.0 4.4 3.9 3.5 3.8 3.8 3.4 3.7 3.6 3.3 3.4 3.0
##  [27] 3.4 3.5 3.4 3.2 3.1 3.4 4.1 4.2 3.1 3.2 3.5 3.6 3.0 3.4 3.5 2.3 3.2 3.5 3.8 3.0 3.8 3.2 3.7 3.3 3.2 3.2
##  [53] 3.1 2.3 2.8 2.8 3.3 2.4 2.9 2.7 2.0 3.0 2.2 2.9 2.9 3.1 3.0 2.7 2.2 2.5 3.2 2.8 2.5 2.8 2.9 3.0 2.8 3.0
##  [79] 2.9 2.6 2.4 2.4 2.7 2.7 3.0 3.4 3.1 2.3 3.0 2.5 2.6 3.0 2.6 2.3 2.7 3.0 2.9 2.9 2.5 2.8 3.3 2.7 3.0 2.9
## [105] 3.0 3.0 2.5 2.9 2.5 3.6 3.2 2.7 3.0 2.5 2.8 3.2 3.0 3.8 2.6 2.2 3.2 2.8 2.8 2.7 3.3 3.2 2.8 3.0 2.8 3.0
## [131] 2.8 3.8 2.8 2.8 2.6 3.0 3.4 3.1 3.0 3.1 3.1 3.1 2.7 3.2 3.3 3.0 2.5 3.0 3.4 3.0

irisxlsx[,1] 

## # A tibble: 150 × 1
##    sepal.length
##           <dbl>
##  1          5.1
##  2          4.9
##  3          4.7
##  4          4.6
##  5          5  
##  6          5.4
##  7          4.6
##  8          5  
##  9          4.4
## 10          4.9
## # ℹ 140 more rows

irisxlsx[1,1]

## # A tibble: 1 × 1
##   sepal.length
##          <dbl>
## 1          5.1

irisxlsx[,2]

## # A tibble: 150 × 1
##    sepal.width
##          <dbl>
##  1         3.5
##  2         3  
##  3         3.2
##  4         3.1
##  5         3.6
##  6         3.9
##  7         3.4
##  8         3.4
##  9         2.9
## 10         3.1
## # ℹ 140 more rows
…
Ordenar datos

irisxlsx_a <- irisxlsx %>% arrange(longitud_sepetalos)
irisxlsx_a

## # A tibble: 150 × 6
##    longitud_sepetalos anchura_sepetalos longitud_petalos anchura_petalos especies longitud_sepetalos_ct
##                 <dbl>             <dbl>            <dbl>           <dbl> <chr>    <chr>                
##  1                4.3               3                1.1             0.1 setosa   1Q                   
##  2                4.4               2.9              1.4             0.2 setosa   1Q                   
##  3                4.4               3                1.3             0.2 setosa   1Q                   
##  4                4.4               3.2              1.3             0.2 setosa   1Q                   
##  5                4.5               2.3              1.3             0.3 setosa   1Q                   
##  6                4.6               3.1              1.5             0.2 setosa   1Q                   
##  7                4.6               3.4              1.4             0.3 setosa   1Q                   
##  8                4.6               3.6              1               0.2 setosa   1Q                   
##  9                4.6               3.2              1.4             0.2 setosa   1Q                   
## 10                4.7               3.2              1.3             0.2 setosa   1Q                   
## # ℹ 140 more rows

irisxlsx_b <- irisxlsx %>% arrange(desc(longitud_sepetalos))
irisxlsx_b

## # A tibble: 150 × 6
##    longitud_sepetalos anchura_sepetalos longitud_petalos anchura_petalos especies  longitud_sepetalos_ct
##                 <dbl>             <dbl>            <dbl>           <dbl> <chr>     <chr>                
##  1                7.9               3.8              6.4             2   virginica Q4                   
##  2                7.7               3.8              6.7             2.2 virginica Q4                   
##  3                7.7               2.6              6.9             2.3 virginica Q4                   
##  4                7.7               2.8              6.7             2   virginica Q4                   
##  5                7.7               3                6.1             2.3 virginica Q4                   
##  6                7.6               3                6.6             2.1 virginica Q4                   
##  7                7.4               2.8              6.1             1.9 virginica Q4                   
##  8                7.3               2.9              6.3             1.8 virginica Q4                   
##  9                7.2               3.6              6.1             2.5 virginica Q4                   
## 10                7.2               3.2              6               1.8 virginica Q4                   
## # ℹ 140 more rows
…
